chamber,label,tracker,baseSmall,baseLarge,height,eta,strips,x,y,z,angle
0,tracker0x,true,100.0,100.0,100.0,1,256,-1.0,0.0,-285.0,0.0
1,tracker0y,true,100.0,100.0,100.0,1,256,-1.0,0.0,-285.0,-1.570796
2,tracker1x,true,100.0,100.0,100.0,1,256,0.0,0.0,-150.0,-1.570796
3,tracker1y,true,100.0,100.0,100.0,1,256,0.0,0.0,-150.0,-3.141592
4,tracker2x,true,100.0,100.0,100.0,1,256,0.0,0.0,155.0,0.0
5,tracker2y,true,100.0,100.0,100.0,1,256,0.0,0.0,155.0,-1.570796
6,me0,false,235.2,460,787.9,8,384,41.194,0.0,0.0,0.001
